<svg width="28" height="23" viewBox="0 0 28 23" fill="none" xmlns="http://www.w3.org/2000/svg">
<path d="M0 20.3534C0 15.7312 0 11.1086 0 6.48643C0.0848248 6.1225 0.188256 5.7646 0.384174 5.44172C1.03048 4.37511 1.99585 3.87328 3.22553 3.86179C4.32661 3.85139 5.42824 3.85467 6.52932 3.86233C6.77176 3.86398 6.88504 3.79064 6.86643 3.53398C6.85111 3.31672 6.8626 3.09782 6.86369 2.87946C6.87355 1.33565 8.05398 0.105964 9.60381 0.0950188C12.5251 0.0742231 15.4469 0.0775066 18.3681 0.0944716C19.612 0.101586 20.6141 0.897297 20.9862 2.08047C21.1323 2.54399 21.0935 3.01628 21.1006 3.48746C21.1061 3.84099 21.1165 3.85686 21.4711 3.85741C22.5634 3.85905 23.6552 3.85577 24.7475 3.85905C26.8698 3.86617 28.0152 5.56102 27.9998 7.12344C27.9583 11.3532 27.984 15.5835 27.9867 19.8138C27.9873 20.5548 27.7465 21.2054 27.2851 21.7762C26.7559 22.4313 26.0456 22.7684 25.2335 22.9195C17.7322 22.9195 10.2315 22.9195 2.73026 22.9195C2.21256 22.8111 1.7162 22.654 1.28003 22.3399C0.591585 21.8446 0.198107 21.1628 0 20.3534ZM13.972 20.1772C17.481 20.2133 20.7607 17.4157 20.7717 13.4059C20.7826 9.46296 17.5784 6.61558 13.9934 6.60737C10.4712 6.59917 7.20518 9.37595 7.19314 13.3846C7.1822 17.3325 10.4006 20.1958 13.972 20.1772Z" fill="#7DBE38"/>
<path d="M13.9957 17.9224C11.4936 17.9306 9.44849 15.909 9.43645 13.4141C9.42441 10.9328 11.4564 8.87622 13.9294 8.86746C16.4775 8.85816 18.5253 10.871 18.5297 13.3884C18.5335 15.8817 16.501 17.9142 13.9957 17.9224Z" fill="#7DBE38"/>
</svg>
