<svg width="122" height="122" viewBox="0 0 122 122" fill="none" xmlns="http://www.w3.org/2000/svg">
<path d="M122 58.2458C122 59.9533 122 61.6579 122 63.3653C121.689 66.1359 121.476 68.9123 120.994 71.6658C116.852 95.2848 98.2328 114.796 74.8134 120.064C71.1021 120.899 67.3423 121.327 63.5683 121.663C61.858 121.663 60.1477 121.663 58.4374 121.663C55.6639 121.341 52.8619 121.235 50.1198 120.645C25.5487 115.366 9.56902 100.735 2.18346 76.7796C0.869392 72.5096 0.407617 68.08 0 63.6503C0 61.7548 0 59.8592 0 57.9636C0.279346 55.5693 0.444673 53.1549 0.85229 50.7805C6.63019 17.2048 38.2476 -5.29107 71.809 1.07972C97.0613 5.87421 113.05 21.4235 120.133 46.0601C121.279 50.0336 121.641 54.144 122 58.2458ZM36.7026 54.8994C33.6327 54.9022 31.3067 56.8662 30.8193 59.7594C30.4487 61.9629 31.244 63.7216 32.7918 65.2608C38.6124 71.0416 44.4103 76.848 50.2224 82.6373C53.2097 85.6103 56.3822 85.6616 59.4978 82.814C66.0453 76.8309 72.5928 70.8506 79.1375 64.8646C84.4223 60.0302 89.6928 55.1844 94.9861 50.3586C96.5881 48.8963 97.5316 47.1689 97.238 44.9627C96.9216 42.6082 95.6531 40.8922 93.3728 40.1311C91.0183 39.3444 88.9175 39.8917 87.0647 41.5906C76.8571 50.9515 66.6154 60.2697 56.4335 69.6591C55.3589 70.6482 54.7774 70.577 53.8026 69.5822C49.6209 65.3121 45.3595 61.1248 41.1322 56.9004C39.878 55.6405 38.4385 54.8224 36.7026 54.8994Z" fill="white"/>
</svg>
