<svg width="161" height="161" viewBox="0 0 161 161" fill="none" xmlns="http://www.w3.org/2000/svg">
<path fill-rule="evenodd" clip-rule="evenodd" d="M80.5 161C124.959 161 161 124.959 161 80.5C161 36.0411 124.959 0 80.5 0C36.0411 0 0 36.0411 0 80.5C0 124.959 36.0411 161 80.5 161ZM104.05 44.4633C102.45 44.4633 101.1 45.1146 99.9997 46.4174C99.0997 47.4595 97.9497 48.8491 96.5498 50.5861C95.2498 52.3231 93.7498 54.3206 92.0498 56.5787C90.3499 58.7499 88.4999 61.1383 86.4999 63.7437C84.4999 66.2624 82.45 68.8678 80.35 71.5601C77.35 67.8256 74.6001 64.3951 72.1001 61.2685C69.7002 58.142 67.5502 55.4497 65.6502 53.1916C63.7502 50.8467 62.1003 49.0228 60.7003 47.7201C59.3003 46.4174 58.1003 45.766 57.1003 45.766C55.5004 45.766 54.0504 46.3305 52.7504 47.4595C51.4504 48.5017 50.8004 49.6308 50.8004 50.8467C50.8004 51.4546 51.5004 52.7139 52.9004 54.6246C54.3004 56.5353 56.1004 58.8368 58.3003 61.5291C60.6003 64.2214 63.1003 67.1743 65.8002 70.3877C68.5002 73.6011 71.2001 76.7711 73.9001 79.8976C71.4001 83.1979 68.7502 86.585 65.9502 90.059C63.2503 93.4461 60.7003 96.6595 58.3003 99.6992C56.0004 102.652 54.0504 105.214 52.4504 107.385C50.9504 109.557 50.2004 111.033 50.2004 111.815C50.2004 113.031 50.7504 114.16 51.8504 115.202C52.9504 116.244 54.2004 116.765 55.6004 116.765C56.4004 116.765 57.2003 116.548 58.0003 116.114C58.8003 115.766 59.6003 115.115 60.4003 114.16L80.95 88.4957C85.0499 93.7066 88.8499 98.6136 92.3498 103.217C95.9498 107.82 98.5997 111.467 100.3 114.16C101.4 115.983 102.85 116.895 104.65 116.895C106.05 116.895 107.35 116.418 108.55 115.462C109.75 114.507 110.35 113.378 110.35 112.075C110.35 111.207 109.6 109.643 108.1 107.385C106.6 105.127 104.7 102.522 102.4 99.5689C100.2 96.6161 97.6997 93.4895 94.8998 90.1893C92.1998 86.8021 89.6499 83.5453 87.2499 80.4187C89.5499 77.4659 91.7998 74.5564 93.9998 71.6904C96.1998 68.8244 98.3497 66.1321 100.45 63.6135L110.5 50.5861C110.7 50.2387 110.8 49.9347 110.8 49.6742C110.8 48.632 110.1 47.503 108.7 46.2871C107.3 45.0712 105.75 44.4633 104.05 44.4633Z" fill="#8246AF"/>
</svg>
