<svg width="38" height="45" viewBox="0 0 38 45" fill="none" xmlns="http://www.w3.org/2000/svg">
<path d="M20.3608 0C21.6352 0.193359 22.892 0.457031 24.0785 0.993164C28.5522 3.02344 31.2768 6.45117 31.9799 11.3203C32.9467 18.0088 28.6928 24.2314 22.1537 25.9102C14.8237 27.7822 7.33539 22.9395 5.99945 15.4688C4.68109 8.13867 9.6557 1.2041 17.0297 0.0878906C17.2055 0.0615234 17.3725 0.0351562 17.5483 0C18.4887 0 19.4203 0 20.3608 0ZM13.8657 18.9053C13.8217 20.25 14.85 20.9092 15.8696 20.3818C16.7309 19.9424 17.5746 19.4766 18.4096 18.9844C18.7963 18.7559 19.0952 18.7383 19.4907 18.9756C20.3432 19.4854 21.2221 19.9688 22.101 20.417C22.892 20.8213 23.85 20.373 24.017 19.5645C24.0786 19.248 24.0434 18.9229 23.9907 18.6064C23.8325 17.6396 23.6743 16.6729 23.5073 15.7061C23.4633 15.4336 23.5073 15.2051 23.7182 14.9941C24.4565 14.2646 25.1684 13.5088 25.8979 12.7617C26.3022 12.3486 26.5131 11.874 26.3285 11.2852C26.144 10.6787 25.6782 10.4062 25.0893 10.3184C24.1225 10.1689 23.1557 10.002 22.1801 9.87891C21.8549 9.83496 21.6879 9.69434 21.5649 9.42188C21.1606 8.52539 20.7211 7.64648 20.3256 6.75879C20.0532 6.13477 19.6313 5.74805 18.9282 5.74805C18.2426 5.75684 17.8383 6.14356 17.5659 6.75C17.1616 7.65527 16.7221 8.55176 16.309 9.45703C16.2036 9.67676 16.0805 9.84375 15.808 9.87891C14.8237 10.0107 13.8393 10.1777 12.8549 10.3184C12.2485 10.4062 11.7651 10.6611 11.5629 11.2852C11.3696 11.8828 11.5981 12.3662 12.02 12.7881C12.7055 13.4824 13.3823 14.2031 14.0854 14.8887C14.3842 15.1787 14.4369 15.4775 14.3578 15.873C14.1733 16.9365 14.0063 18.0264 13.8657 18.9053Z" fill="#7DBE38"/>
<path d="M25.9858 44.9998C25.52 44.7712 25.2299 44.3845 24.9838 43.9363C22.2416 39.0671 19.4907 34.198 16.7397 29.3289C16.6694 29.197 16.4936 29.0564 16.5991 28.8982C16.6869 28.7751 16.8803 28.8806 17.0121 28.8894C21.0463 29.3113 24.7465 28.4324 28.0864 26.1121C28.7016 25.6902 29.2641 25.198 29.8266 24.7058C30.2221 24.3542 30.2309 24.3542 30.477 24.8025C31.6459 26.8679 32.8061 28.9333 33.975 30.9988C35.1 32.9851 36.2162 34.9802 37.3412 36.9666C37.5082 37.2566 37.6576 37.5554 37.7543 37.8806C37.7543 37.9949 37.7543 38.1179 37.7543 38.2322C37.4028 39.2605 37.0336 39.5417 35.9438 39.4802C34.2123 39.3835 32.4721 39.2517 30.7407 39.1023C30.3979 39.0759 30.2485 39.1814 30.1166 39.4714C29.4223 40.9216 28.6928 42.3542 27.9897 43.8044C27.7436 44.3054 27.4535 44.7361 26.9438 44.9998C26.6274 44.9998 26.311 44.9998 25.9858 44.9998Z" fill="#7DBE38"/>
<path d="M0.145996 37.7934C0.928223 36.141 1.88623 34.5766 2.76514 32.977C4.28564 30.2172 5.83252 27.475 7.35303 24.7241C7.54639 24.3813 7.67822 24.3022 7.98584 24.601C9.29541 25.8666 10.7808 26.8598 12.4419 27.6069C12.6353 27.6948 12.7759 27.8354 12.8726 28.02C14.2964 30.5424 15.729 33.0649 17.1616 35.5873C17.2847 35.8071 17.2671 35.9828 17.1528 36.1938C15.6499 38.8569 14.147 41.5287 12.6528 44.1918C12.4419 44.5698 12.1343 44.8159 11.7476 44.9916C11.4575 44.9916 11.1587 44.9916 10.8687 44.9916C10.3765 44.7543 10.0601 44.3588 9.82275 43.8666C9.11084 42.3725 8.36377 40.9047 7.64307 39.4194C7.51123 39.1469 7.35303 39.0766 7.06299 39.103C5.39307 39.2436 3.71436 39.3666 2.04443 39.4721C0.919434 39.5424 0.603027 39.3315 0.145996 38.3207C0.145996 38.145 0.145996 37.9692 0.145996 37.7934Z" fill="#7DBE38"/>
</svg>
