<svg width="217" height="191" viewBox="0 0 217 191" fill="none" xmlns="http://www.w3.org/2000/svg">
<path fill-rule="evenodd" clip-rule="evenodd" d="M49.0957 58.949C61.2507 58.949 71.1042 49.0955 71.1042 36.9406C71.1042 24.7856 61.2507 14.9321 49.0957 14.9321C36.9408 14.9321 27.0873 24.7856 27.0873 36.9406C27.0873 49.0955 36.9408 58.949 49.0957 58.949ZM0.846478 99.58L1.12089 99.8027C0.406001 101.121 0 102.631 0 104.236C0 109.378 4.16879 113.547 9.31126 113.547C11.6076 113.547 13.7099 112.716 15.3334 111.337L15.4482 111.431L15.8963 110.819C16.5699 110.145 17.1408 109.368 17.5833 108.514L24.1246 99.58L23.2782 116.933L10.4798 175.525C9.73405 176.921 9.31126 178.514 9.31126 180.207C9.31126 185.7 13.7643 190.153 19.2574 190.153C23.8086 190.153 27.6458 187.096 28.8279 182.924L28.9919 182.958L41.0542 124.551H44.0169L46.3447 148.041L44.9354 179.85C44.8878 180.245 44.8634 180.646 44.8634 181.054C44.8634 181.158 44.865 181.263 44.8682 181.367L44.8634 181.477L44.8722 181.477C45.0941 186.774 49.4583 191 54.8095 191C59.9458 191 64.1727 187.106 64.7002 182.11L64.7556 182.112L65.6021 150.58C65.8137 147.194 65.5598 135.725 62.851 116.933C62.851 107.834 63.3928 103.477 64.055 98.1509L64.055 98.1508C64.5633 94.0625 65.1426 89.4039 65.6021 81.5923C90.6014 65.8915 96.7147 59.6338 100.789 55.4633C101.814 54.4138 102.71 53.4964 103.746 52.594C106.5 50.9768 108.349 47.9838 108.349 44.5589C108.349 39.4164 104.18 35.2476 99.038 35.2476C95.9064 35.2476 93.1359 36.7936 91.448 39.164L60.7348 62.7582H33.0127C30.2563 63.0204 28.915 63.5474 27.2989 65.9325L0.846478 99.58Z" fill="#8246AF"/>
<path fill-rule="evenodd" clip-rule="evenodd" d="M188.765 30.1696C188.765 42.3245 178.911 52.178 166.757 52.178C154.602 52.178 144.748 42.3245 144.748 30.1696C144.748 18.0146 154.602 8.16113 166.757 8.16113C178.911 8.16113 188.765 18.0146 188.765 30.1696ZM130.606 38.4427C128.899 36.4853 126.387 35.2484 123.586 35.2484C118.444 35.2484 114.275 39.4172 114.275 44.5597C114.275 47.4539 115.595 50.0397 117.667 51.7475L117.661 51.7548L126.337 58.5266L133.744 64.0287L150.25 75.0329C150.657 79.215 151.144 83.9598 151.604 88.4471C152.453 96.7288 153.213 104.134 153.213 105.506C153.213 107.622 150.673 136.826 150.673 136.826C150.018 140.973 149.986 143.202 151.308 146.772L159.712 167.127C160.532 171.794 164.606 175.341 169.508 175.341C175.001 175.341 179.454 170.888 179.454 165.394C179.454 163.829 179.092 162.348 178.448 161.03L178.607 160.95L170.989 143.598C169.5 140.665 169.391 138.933 169.719 135.768L171.412 118.203H175.01L179.454 140.212C180.723 145.291 188.977 152.697 196.807 150.793L206.47 147.308C211.295 146.623 215.006 142.475 215.006 137.461C215.006 131.968 210.553 127.515 205.06 127.515C203.963 127.515 202.908 127.692 201.921 128.02L201.885 127.938L196.807 129.842L192.997 111.22L191.516 91.116L199.073 101.661C200.608 104.695 203.755 106.776 207.388 106.776C212.53 106.776 216.699 102.607 216.699 97.4646C216.699 95.1598 215.861 93.0505 214.474 91.4245L214.583 91.3276C214.244 91.1583 197.653 69.813 189.4 59.1615C187.687 57.229 186.441 56.4349 183.051 56.1988H155.329C145.673 49.9149 140.07 46.2113 130.606 38.4427Z" fill="#8246AF"/>
<path fill-rule="evenodd" clip-rule="evenodd" d="M105.268 22.083C104.527 20.6574 103.537 19.5904 101.482 18.1899C100.034 17.2023 99.6604 15.2275 100.648 13.779C101.636 12.3306 103.61 11.957 105.059 12.9446C107.661 14.7185 109.526 16.5086 110.902 19.1568C112.187 21.6305 112.944 24.6841 113.783 28.6692C114.144 30.3847 113.046 32.0682 111.331 32.4293C109.615 32.7904 107.932 31.6925 107.571 29.9769C106.717 25.9203 106.099 23.6831 105.268 22.083Z" fill="#8246AF"/>
<path fill-rule="evenodd" clip-rule="evenodd" d="M124.205 13.7215C123.287 15.0403 122.804 16.4139 122.52 18.8837C122.32 20.6253 120.746 21.8749 119.004 21.6747C117.262 21.4744 116.013 19.9002 116.213 18.1586C116.573 15.0302 117.289 12.5458 118.993 10.0961C120.585 7.80779 122.935 5.71652 126.073 3.11975C127.423 2.00189 129.424 2.19046 130.542 3.54095C131.66 4.89143 131.471 6.89241 130.121 8.01027C126.927 10.6537 125.234 12.2414 124.205 13.7215Z" fill="#8246AF"/>
</svg>
